…
Rides by members account for approximately 59% of the dataset for the
12-months period.

``` r
# number of rides per month

rides_per_month <- total_rides(df = full_df_clean, var = year_month)
rides_per_month[order(rides_per_month$year_month, decreasing = TRUE),]
```

    ## # A tibble: 24 x 4
    ## # Groups:   member_type [2]
    ##    member_type year_month total_rides perc_of_total
    ##    <chr>       <chr>            <int>         <dbl>
    ##  1 casual      2021 - 03        83918         2.51 
    ##  2 member      2021 - 03       144399         4.32 
    ##  3 casual      2021 - 02        10072         0.301
    ##  4 member      2021 - 02        39332         1.18 
    ##  5 casual      2021 - 01        18095         0.541
    ##  6 member      2021 - 01        78631         2.35 
    ##  7 casual      2020 - 12        29960         0.896
    ##  8 member      2020 - 12       101062         3.02 
    ##  9 casual      2020 - 11        72847         2.18 
    ## 10 member      2020 - 11       149069         4.46 
    ## # ... with 14 more rows
…
<!-- end list -->

``` r
# total rides by hour of day

rides_per_HoD <- total_rides(df = full_df_clean, var = start_hour)
rides_per_HoD[order(rides_per_HoD$start_hour),]
```

    ## # A tibble: 48 x 4
    ## # Groups:   member_type [2]
    ##    member_type start_hour total_rides perc_of_total
    ##    <chr>       <chr>            <int>         <dbl>
    ##  1 casual      00               21307        0.637 
    ##  2 member      00               11221        0.336 
    ##  3 casual      01               13261        0.397 
    ##  4 member      01                6274        0.188 
    ##  5 casual      02                7295        0.218 
    ##  6 member      02                3353        0.100 
    ##  7 casual      03                3854        0.115 
    ##  8 member      03                2116        0.0633
    ##  9 casual      04                3183        0.0952
    ## 10 member      04                3355        0.100 
    ## # ... with 38 more rows

``` r
# get % difference between casual riders vs members

rides_percent_diff_HoD <- rides_perc_diff(df = full_df_clean, var = start_hour)
rides_percent_diff_HoD
```

    ## # A tibble: 24 x 6
    ##    start_hour total_rides perc_of_total member_riders_perc casual_riders_perc
    ##    <chr>            <int>         <dbl>              <dbl>              <dbl>
    ##  1 00               32528         0.973               34.5               65.5
    ##  2 01               19535         0.584               32.1               67.9
    ##  3 02               10648         0.318               31.5               68.5
    ##  4 03                5970         0.179               35.4               64.6
    ##  5 04                6538         0.196               51.3               48.7
    ##  6 05               21846         0.653               76.7               23.3
    ##  7 06               67353         2.01                81.7               18.3
    ##  8 07              114306         3.42                80.6               19.4
    ##  9 08              130064         3.89                76.7               23.3
    ## 10 09              123076         3.68                68.3               31.7
    ## # ... with 14 more rows, and 1 more variable: relative_diff_perc <dbl>
…
